<?xml version="1.0" encoding="utf-8"?>
<!-- Generator: Adobe Illustrator 21.1.0, SVG Export Plug-In . SVG Version: 6.00 Build 0)  -->
<svg version="1.1" id="Layer_1" xmlns="http://www.w3.org/2000/svg" xmlns:xlink="http://www.w3.org/1999/xlink" x="0px" y="0px"
	 viewBox="0 0 56.6 33.2" style="enable-background:new 0 0 56.6 33.2;" xml:space="preserve">
<polygon points="51.6,0 28.2,23.3 4.9,0 0,4.9 28.2,33.2 56.6,4.9 "/>
</svg>
